Evaluating RSV monoclonal antibody programmes • rsvie
…
## Running: Iterating through model simulations
##  Sample no:  1     Running: Calculating the outcomes

6. Extract incidence for further exploration

# Look at full posterior outcomes

# summari outcomes annually
RSV_mab_vhr_sum <- summarise_outcomes(RSV_mab_vhr)
RSV_mab_s_sum <- summarise_outcomes(RSV_mab_s)

get_averted_df(RSV_mab_vhr_sum, RSV_mab_s_sum)

## # A tibble: 150 × 7
## # Groups:   s, outcome [6]
##        s outcome    age_group cases_total case_total_base total_case_averted
##    <int> <fct>      <fct>           <dbl>           <dbl>              <dbl>
##  1     1 A+E visits <1 month        1516.           6032.           4516.   
##  2     1 A+E visits 1 month         2864.           6136.           3272.   
##  3     1 A+E visits 2 month         3915.           6164.           2249.   
##  4     1 A+E visits 3 month         4883.           6231.           1348.   
##  5     1 A+E visits 4 month         5595.           6273.            678.   
##  6     1 A+E visits 5 month         6049.           6301.            252.   
##  7     1 A+E visits 6 month         6036.           6036.              0.384
##  8     1 A+E visits 7 month         6196.           6050.           -145.   
##  9     1 A+E visits 8 month         6311.           6060.           -251.   
## 10     1 A+E visits 9 month         6410.           6067.           -342.   
## # ℹ 140 more rows
## # ℹ 1 more variable: prop_cases_averted <dbl>
…
