Evaluating RSV older adult vaccination programmes • rsvie
…
# summari outcomes annually
RSV_65_vhr_sum <- summarise_outcomes(RSV_65_vhr)
RSV_65_s_sum <- summarise_outcomes(RSV_65_s)

get_averted_df(RSV_65_vhr_sum, RSV_65_s_sum)

## # A tibble: 150 × 7
## # Groups:   s, outcome [6]
##        s outcome    age_group cases_total case_total_base total_case_averted
##    <int> <fct>      <fct>           <dbl>           <dbl>              <dbl>
##  1     1 A+E visits <1 month        6003.           6032.               28.4
##  2     1 A+E visits 1 month         6118.           6136.               18.3
##  3     1 A+E visits 2 month         6128.           6164.               35.4
##  4     1 A+E visits 3 month         6181.           6231.               50.3
##  5     1 A+E visits 4 month         6210.           6273.               62.8
##  6     1 A+E visits 5 month         6231.           6301.               69.2
##  7     1 A+E visits 6 month         5964.           6036.               71.5
##  8     1 A+E visits 7 month         5970.           6050.               80.5
##  9     1 A+E visits 8 month         5966.           6060.               93.6
## 10     1 A+E visits 9 month         5957.           6067.              111. 
## # ℹ 140 more rows
## # ℹ 1 more variable: prop_cases_averted <dbl>
…
