Evaluating RSV maternal vaccination programmes • rsvie
…
# summari outcomes annually
RSV_mat_vhr_sum <- summarise_outcomes(RSV_mat_vhr)
RSV_mat_s_sum <- summarise_outcomes(RSV_mat_s)

get_averted_df(RSV_mat_vhr_sum, RSV_mat_s_sum)

## # A tibble: 150 × 7
## # Groups:   s, outcome [6]
##        s outcome    age_group cases_total case_total_base total_case_averted
##    <int> <fct>      <fct>           <dbl>           <dbl>              <dbl>
##  1     1 A+E visits <1 month        3905.           6044.             2139. 
##  2     1 A+E visits 1 month         4370.           6111.             1742. 
##  3     1 A+E visits 2 month         4836.           6115.             1279. 
##  4     1 A+E visits 3 month         5322.           6167.              846. 
##  5     1 A+E visits 4 month         5701.           6208.              507. 
##  6     1 A+E visits 5 month         5966.           6240.              274. 
##  7     1 A+E visits 6 month         5860.           5979.              120. 
##  8     1 A+E visits 7 month         5959.           5990.               31.4
##  9     1 A+E visits 8 month         6018.           5988.              -29.4
## 10     1 A+E visits 9 month         6055.           5977.              -77.2
## # ℹ 140 more rows
## # ℹ 1 more variable: prop_cases_averted <dbl>
…
